{
  "from": 1,
  "to": 20,
  "count": 1821,
  "_links": {
    "next": {
      "href": "https://api.edamam.com/api/recipes/v2?q=cake&app_key=ed3ef53124d5aeca35f2143b29cb363d&field=uri&field=label&field=image&field=url&field=totalTime&dishType=Desserts&_cont=CHcVQBtNNQphDmgVQntAEX4Ba0tzBAoHRWZHAWYWYlJ7BgAVX3dBUWcTNgN0VQFRSmVCUDQWZAAgAFVSRGVHADEQNQclUhFqX3cWQT1OcV9xBB8VADQWVhFCPwoxXVZEITQeVDcBaR4-SQ%3D%3D&cuisineType=French&time=1-300&imageSize=SMALL&type=public&app_id=5c0fb7a3",
      "title": "Next page"
    }
  },
  "hits": [
    {
      "recipe": {
        "uri": "http://www.edamam.com/ontologies/edamam.owl#recipe_e7e22b5f9afdae010472f2084a76fd6c",
        "label": "Easter Egg Cake Recipe",
        "image": "https://www.edamam.com/web-img/5f3/5f3533ac235884d386289ca3078f2082.jpg",
        "url": "http://www.seriouseats.com/recipes/2013/03/easter-egg-cake-recipe.html",
        "totalTime": 120.0
      },
      "_links": {
        "self": {
          "href": "https://api.edamam.com/api/recipes/v2/e7e22b5f9afdae010472f2084a76fd6c?type=public&app_id=5c0fb7a3&app_key=ed3ef53124d5aeca35f2143b29cb363d",
          "title": "Self"
        }
      }
    },
    {
      "recipe": {
        "uri": "http://www.edamam.com/ontologies/edamam.owl#recipe_e9a2f2e514635dcd3e1f30b792c95ab2",
        "label": "Ginger Berry Compote with Angel Food Cake recipes",
        "image": "https://www.edamam.com/web-img/502/50266113a25f5fd65aa2f5171011cd26",
        "url": "http://www.marthastewart.com/338800/ginger-berry-compote-with-angel-food-cak",
        "totalTime": 20.0
      },
      "_links": {
        "self": {
          "href": "https://api.edamam.com/api/recipes/v2/e9a2f2e514635dcd3e1f30b792c95ab2?type=public&app_id=5c0fb7a3&app_key=ed3ef53124d5aeca35f2143b29cb363d",
          "title": "Self"
        }
      }
    },
    {
      "recipe": {
        "uri": "http://www.edamam.com/ontologies/edamam.owl#recipe_55e880818729633ec03ec5b2cc0a18f3",
        "label": "Pound Cake With Oranges, Honey, and Rosemary",
        "image": "https://www.edamam.com/web-img/9a3/9a347660b42c050c7a21f16c7d48eddb.jpg",
        "url": "https://www.realsimple.com/food-recipes/browse-all-recipes/pound-cake-oranges-honey-rosemary",
        "totalTime": 10.0
      },
      "_links": {
        "self": {
          "href": "https://api.edamam.com/api/recipes/v2/55e880818729633ec03ec5b2cc0a18f3?type=public&app_id=5c0fb7a3&app_key=ed3ef53124d5aeca35f2143b29cb363d",
          "title": "Self"
        }
      }
    },
    {
      "recipe": {
        "uri": "http://www.edamam.com/ontologies/edamam.owl#recipe_756e23f89f3962af6461f8640d0ccc54",
        "label": "Grilled Pound Cake Recipe",
        "image": "https://www.edamam.com/web-img/a49/a49e8bab06fef0403fa79c565affcd3e.jpg",
        "url": "http://www.seriouseats.com/recipes/2012/06/grilled-pound-cake-with-berry-compote-recipe.html",
        "totalTime": 25.0
      },
      "_links": {
        "self": {
          "href": "https://api.edamam.com/api/recipes/v2/756e23f89f3962af6461f8640d0ccc54?type=public&app_id=5c0fb7a3&app_key=ed3ef53124d5aeca35f2143b29cb363d",
          "title": "Self"
        }
      }
    },
    {
      "recipe": {
        "uri": "http://www.edamam.com/ontologies/edamam.owl#recipe_ea3da4cd1ff36b7a00644408611a83df",
        "label": "Banana Upside-Down Cake recipes",
        "image": "https://www.edamam.com/web-img/f41/f418c416a45f5a7337e0651ca73b686d.jpg",
        "url": "http://www.epicurious.com/recipes/food/views/Banana-Upside-Down-Cake-2516",
        "totalTime": 80.0
      },
      "_links": {
        "self": {
          "href": "https://api.edamam.com/api/recipes/v2/ea3da4cd1ff36b7a00644408611a83df?type=public&app_id=5c0fb7a3&app_key=ed3ef53124d5aeca35f2143b29cb363d",
          "title": "Self"
        }
      }
    },
    {
      "recipe": {
        "uri": "http://www.edamam.com/ontologies/edamam.owl#recipe_0e140ab9230b7046d99b8996792c1179",
        "label": "Red Velvet Cake Balls recipes",
        "image": "https://www.edamam.com/web-img/369/369276b89763bc92a53a970a62245901",
        "url": "http://www.myrecipes.com/recipe/red-velvet-cake-balls",
        "totalTime": 50.0
      },
      "_links": {
        "self": {
          "href": "https://api.edamam.com/api/recipes/v2/0e140ab9230b7046d99b8996792c1179?type=public&app_id=5c0fb7a3&app_key=ed3ef53124d5aeca35f2143b29cb363d",
          "title": "Self"
        }
      }
    },
    {
      "recipe": {
        "uri": "http://www.edamam.com/ontologies/edamam.owl#recipe_95b3978884cedbd4d4b3a84186c2d5ea",
        "label": "Less Offensive Rich Chocolate Cake with Coconut Filling and Ganache",
        "image": "https://www.edamam.com/web-img/518/518bcedc6bcaf341707210108d7f37c7.jpg",
        "url": "https://food52.com/recipes/3187-less-offensive-rich-chocolate-cake-with-coconut-filling-and-ganache",
        "totalTime": 297.0
      },
      "_links": {
        "self": {
          "href": "https://api.edamam.com/api/recipes/v2/95b3978884cedbd4d4b3a84186c2d5ea?type=public&app_id=5c0fb7a3&app_key=ed3ef53124d5aeca35f2143b29cb363d",
          "title": "Self"
        }
      }
    },
    {
      "recipe": {
        "uri": "http://www.edamam.com/ontologies/edamam.owl#recipe_c0b2d63a8427e235557b6696eec7c94c",
        "label": "Rustic Chocolate Easter Cake, from Brazil with Love",
        "image": "https://www.edamam.com/web-img/a29/a294fc00abe961580fb9d45f8f4a1c26.jpg",
        "url": "http://honestcooking.com/nega-maluca-brazilian-chocolate-cake/",
        "totalTime": 105.0
      },
      "_links": {
        "self": {
          "href": "https://api.edamam.com/api/recipes/v2/c0b2d63a8427e235557b6696eec7c94c?type=public&app_id=5c0fb7a3&app_key=ed3ef53124d5aeca35f2143b29cb363d",
          "title": "Self"
        }
      }
    },
    {
      "recipe": {
        "uri": "http://www.edamam.com/ontologies/edamam.owl#recipe_24e2c2e659f91cad0d02967118d676d8",
        "label": "Angel Food Cake with Three-Berry Compote recipes",
        "image": "https://www.edamam.com/web-img/9c5/9c5c3144da658884724fc1669eac6911",
        "url": "http://www.foodandwine.com/recipes/angel-food-cake-three-berry-compote",
        "totalTime": 60.0
      },
      "_links": {
        "self": {
          "href": "https://api.edamam.com/api/recipes/v2/24e2c2e659f91cad0d02967118d676d8?type=public&app_id=5c0fb7a3&app_key=ed3ef53124d5aeca35f2143b29cb363d",
          "title": "Self"
        }
      }
    },
    {
      "recipe": {
        "uri": "http://www.edamam.com/ontologies/edamam.owl#recipe_b74412a657ab24c60133c1cd39bf42ea",
        "label": "Pistachio Marzipan Petit-Four Cake recipes",
        "image": "https://www.edamam.com/web-img/f75/f759f64e3c1137a840e6e23fde8e8846",
        "url": "http://www.loveandoliveoil.com/2008/08/pistachio-marzipan-petit-four-cake.html",
        "totalTime": 105.0
      },
      "_links": {
        "self": {
          "href": "https://api.edamam.com/api/recipes/v2/b74412a657ab24c60133c1cd39bf42ea?type=public&app_id=5c0fb7a3&app_key=ed3ef53124d5aeca35f2143b29cb363d",
          "title": "Self"
        }
      }
    },
    {
      "recipe": {
        "uri": "http://www.edamam.com/ontologies/edamam.owl#recipe_1f3dc10cfd4e112c718515cfbee93676",
        "label": "Crème Brûlée Cake",
        "image": "https://www.edamam.com/web-img/bea/bea05d7094b69f04169eb532477b9ba7.jpg",
        "url": "https://www.delish.com/cooking/recipe-ideas/recipes/a52073/creme-brulee-cake-recipe/",
        "totalTime": 105.0
      },
      "_links": {
        "self": {
          "href": "https://api.edamam.com/api/recipes/v2/1f3dc10cfd4e112c718515cfbee93676?type=public&app_id=5c0fb7a3&app_key=ed3ef53124d5aeca35f2143b29cb363d",
          "title": "Self"
        }
      }
    },
    {
      "recipe": {
        "uri": "http://www.edamam.com/ontologies/edamam.owl#recipe_12fa511962c6e91a084932d5984aeb87",
        "label": "Sock-It-to-Me Cake",
        "image": "https://www.edamam.com/web-img/603/6036327675fa0d6c2b6209dff6307870.jpg",
        "url": "http://www.cookstr.com/recipes/sock-it-to-me-cake-gina-neely",
        "totalTime": 60.0
      },
      "_links": {
        "self": {
          "href": "https://api.edamam.com/api/recipes/v2/12fa511962c6e91a084932d5984aeb87?type=public&app_id=5c0fb7a3&app_key=ed3ef53124d5aeca35f2143b29cb363d",
          "title": "Self"
        }
      }
    },
    {
      "recipe": {
        "uri": "http://www.edamam.com/ontologies/edamam.owl#recipe_a5a5f831b63815abfa73018405423f34",
        "label": "Basic Chocolate Cake recipes",
        "image": "https://www.edamam.com/web-img/872/872bcf494ba20e226d5b476cc3987ad4",
        "url": "http://www.goodhousekeeping.com/food-recipes/a4316/basic-chocolate-cake-25/",
        "totalTime": 40.0
      },
      "_links": {
        "self": {
          "href": "https://api.edamam.com/api/recipes/v2/a5a5f831b63815abfa73018405423f34?type=public&app_id=5c0fb7a3&app_key=ed3ef53124d5aeca35f2143b29cb363d",
          "title": "Self"
        }
      }
    },
    {
      "recipe": {
        "uri": "http://www.edamam.com/ontologies/edamam.owl#recipe_28eb4c09628ff431dabea7dcff57a7d1",
        "label": "Fruit Mousse with Angel Food Cake",
        "image": "https://www.edamam.com/web-img/f67/f67ac2278bffd5de2aaedb4fd5e36f06.jpg",
        "url": "https://www.menshealth.com/recipes/fruit-mousse-with-angel-food-cake",
        "totalTime": 45.0
      },
      "_links": {
        "self": {
          "href": "https://api.edamam.com/api/recipes/v2/28eb4c09628ff431dabea7dcff57a7d1?type=public&app_id=5c0fb7a3&app_key=ed3ef53124d5aeca35f2143b29cb363d",
          "title": "Self"
        }
      }
    },
    {
      "recipe": {
        "uri": "http://www.edamam.com/ontologies/edamam.owl#recipe_0715d144479ff98a1feb8817b5763f49",
        "label": "French Toast Cake Pop",
        "image": "https://www.edamam.com/web-img/48f/48ff841d8accb8d294f7fafd2d6ae2f8.jpeg",
        "url": "https://www.foodnetwork.com/recipes/french-toast-cake-pop-3161775",
        "totalTime": 245.0
      },
      "_links": {
        "self": {
          "href": "https://api.edamam.com/api/recipes/v2/0715d144479ff98a1feb8817b5763f49?type=public&app_id=5c0fb7a3&app_key=ed3ef53124d5aeca35f2143b29cb363d",
          "title": "Self"
        }
      }
    },
    {
      "recipe": {
        "uri": "http://www.edamam.com/ontologies/edamam.owl#recipe_de7173f6a6dcc8b410c6ed05f7efa053",
        "label": "Knock You Naked Brownies recipes",
        "image": "https://www.edamam.com/web-img/ee1/ee1227128197faf10f69319ad3f4696f",
        "url": "http://thepioneerwoman.com/cooking/knock-you-naked-brownies/",
        "totalTime": 105.0
      },
      "_links": {
        "self": {
          "href": "https://api.edamam.com/api/recipes/v2/de7173f6a6dcc8b410c6ed05f7efa053?type=public&app_id=5c0fb7a3&app_key=ed3ef53124d5aeca35f2143b29cb363d",
          "title": "Self"
        }
      }
    },
    {
      "recipe": {
        "uri": "http://www.edamam.com/ontologies/edamam.owl#recipe_c8d792e5ff37dd98557367a2be8f6729",
        "label": "Chocolate Layer-Mousse Cake with Cognac and Bittersweet Chocolate Curls recipes",
        "image": "https://www.edamam.com/web-img/6cd/6cd80b020ded778d3a524162edfbc1b0",
        "url": "http://foodandstyle.com/2009/11/25/chocolate-layer-mousse-cake-with-cognac-and-bittersweet-chocolate-curls/",
        "totalTime": 120.0
      },
      "_links": {
        "self": {
          "href": "https://api.edamam.com/api/recipes/v2/c8d792e5ff37dd98557367a2be8f6729?type=public&app_id=5c0fb7a3&app_key=ed3ef53124d5aeca35f2143b29cb363d",
          "title": "Self"
        }
      }
    },
    {
      "recipe": {
        "uri": "http://www.edamam.com/ontologies/edamam.owl#recipe_98b8a8a9b7ce5d9896d1437fe3173650",
        "label": "Chocolate Chip Angel Food Cake with Chocolate Ganache recipes",
        "image": "https://www.edamam.com/web-img/dbb/dbb1c485b1c47bc0fac22a5b30f3890c",
        "url": "http://www.marthastewart.com/317317/chocolate-chip-angel-food-cake-with-choc",
        "totalTime": 105.0
      },
      "_links": {
        "self": {
          "href": "https://api.edamam.com/api/recipes/v2/98b8a8a9b7ce5d9896d1437fe3173650?type=public&app_id=5c0fb7a3&app_key=ed3ef53124d5aeca35f2143b29cb363d",
          "title": "Self"
        }
      }
    },
    {
      "recipe": {
        "uri": "http://www.edamam.com/ontologies/edamam.owl#recipe_131b04db6c712cb620e50cadfc8e91ad",
        "label": "Provençal omelette cake",
        "image": "https://www.edamam.com/web-img/8f7/8f7ac06d50b16bda68c662263bb3208b.jpg",
        "url": "http://www.bbcgoodfood.com/recipes/6428/provenal-omelette-cake",
        "totalTime": 85.0
      },
      "_links": {
        "self": {
          "href": "https://api.edamam.com/api/recipes/v2/131b04db6c712cb620e50cadfc8e91ad?type=public&app_id=5c0fb7a3&app_key=ed3ef53124d5aeca35f2143b29cb363d",
          "title": "Self"
        }
      }
    },
    {
      "recipe": {
        "uri": "http://www.edamam.com/ontologies/edamam.owl#recipe_89f998157234042430bb48c8f00c24ec",
        "label": "Ginger Berry Compote with Angel Food Cake",
        "image": "https://www.edamam.com/web-img/32d/32db62d457d64ff555e975d736702c7e.jpg",
        "url": "http://www.delish.com/cooking/recipe-ideas/recipes/a21829/ginger-berry-compote-angel-food-cake-recipe-mslo0913/",
        "totalTime": 20.0
      },
      "_links": {
        "self": {
          "href": "https://api.edamam.com/api/recipes/v2/89f998157234042430bb48c8f00c24ec?type=public&app_id=5c0fb7a3&app_key=ed3ef53124d5aeca35f2143b29cb363d",
          "title": "Self"
        }
      }
    }
  ]
}
