
{
  "from": 1,
  "to": 20,
  "count": 9254,
  "_links": {
    "next": {
      "href": "https://api.edamam.com/api/recipes/v2?q=pizza&app_key=ed3ef53124d5aeca35f2143b29cb363d&field=uri&field=label&field=image&field=url&field=totalTime&dishType=Main%20course&_cont=CHcVQBtNNQphDmgVQntAEX4BYVdtBgMBQ2BJCmEVZldwAAAPUXlSCmMXalMiBgpRF2RBCmdBNQQiAFIDQGdHBWYXZF0nUAsVLnlSVSBMPkd5BgMbUSYRVTdgMgksRlpSAAcRXTVGcV84SU4%3D&cuisineType=Italian&time=1-300&imageSize=SMALL&type=public&app_id=5c0fb7a3",
      "title": "Next page"
    }
  },
  "hits": [
    {
      "recipe": {
        "uri": "http://www.edamam.com/ontologies/edamam.owl#recipe_77db6e25dffe1836d4407cf4575f0141",
        "label": "Chorizo, caper & rocket pizza",
        "image": "https://www.edamam.com/web-img/7fe/7fee72cbf470edc0089493eb663a7a09.jpg",
        "url": "http://www.bbcgoodfood.com/recipes/1506638/chorizo-caper-and-rocket-pizza",
        "totalTime": 25.0
      },
      "_links": {
        "self": {
          "href": "https://api.edamam.com/api/recipes/v2/77db6e25dffe1836d4407cf4575f0141?type=public&app_id=5c0fb7a3&app_key=ed3ef53124d5aeca35f2143b29cb363d",
          "title": "Self"
        }
      }
    },
    {
      "recipe": {
        "uri": "http://www.edamam.com/ontologies/edamam.owl#recipe_c9bf37296a0126d18781c952dc45a230",
        "label": "Pizza Frizza recipes",
        "image": "https://www.edamam.com/web-img/94a/94aeb549b29ac92dced2ac55765f38f9",
        "url": "http://www.marthastewart.com/284463/pizza-frizza",
        "totalTime": 20.0
      },
      "_links": {
        "self": {
          "href": "https://api.edamam.com/api/recipes/v2/c9bf37296a0126d18781c952dc45a230?type=public&app_id=5c0fb7a3&app_key=ed3ef53124d5aeca35f2143b29cb363d",
          "title": "Self"
        }
      }
    },
    {
      "recipe": {
        "uri": "http://www.edamam.com/ontologies/edamam.owl#recipe_f2d98400bdc5f425be828e1fa51ac625",
        "label": "Caramelized Broccoli and Red Onion Pizza Recipe",
        "image": "https://www.edamam.com/web-img/859/859019760150c9ef6c4fd5fc584f5df5.jpeg",
        "url": "http://www.seriouseats.com/recipes/2012/12/caramelized-broccoli-and-red-onion-pizza.html",
        "totalTime": 180.0
      },
      "_links": {
        "self": {
          "href": "https://api.edamam.com/api/recipes/v2/f2d98400bdc5f425be828e1fa51ac625?type=public&app_id=5c0fb7a3&app_key=ed3ef53124d5aeca35f2143b29cb363d",
          "title": "Self"
        }
      }
    },
    {
      "recipe": {
        "uri": "http://www.edamam.com/ontologies/edamam.owl#recipe_1b25671a32284038b57ad8b49c44af68",
        "label": "Grilled BLT Pizza recipes",
        "image": "https://www.edamam.com/web-img/2ac/2ac98d88117ff8f2327d302ab290b164",
        "url": "http://www.foodrepublic.com/recipes/grilled-blt-pizza-recipe/",
        "totalTime": 25.0
      },
      "_links": {
        "self": {
          "href": "https://api.edamam.com/api/recipes/v2/1b25671a32284038b57ad8b49c44af68?type=public&app_id=5c0fb7a3&app_key=ed3ef53124d5aeca35f2143b29cb363d",
          "title": "Self"
        }
      }
    },
    {
      "recipe": {
        "uri": "http://www.edamam.com/ontologies/edamam.owl#recipe_f49df40106249e6a837b481f28ce8d92",
        "label": "Pizza Dough Zones Recipe",
        "image": "https://www.edamam.com/web-img/250/25045be9dd59c6f968eac6ebf9430fd6.jpg",
        "url": "https://www.chowhound.com/recipes/pizza-dough-zones-30983",
        "totalTime": 25.0
      },
      "_links": {
        "self": {
          "href": "https://api.edamam.com/api/recipes/v2/f49df40106249e6a837b481f28ce8d92?type=public&app_id=5c0fb7a3&app_key=ed3ef53124d5aeca35f2143b29cb363d",
          "title": "Self"
        }
      }
    },
    {
      "recipe": {
        "uri": "http://www.edamam.com/ontologies/edamam.owl#recipe_76dfcd3135fffb007c22ffd0b2e18be0",
        "label": "Curried Butternut Squash Pizza",
        "image": "https://www.edamam.com/web-img/ad4/ad4994169fd9ee27fba689cf949ebdab.jpg",
        "url": "https://food52.com/recipes/7312-curried-butternut-squash-pizza",
        "totalTime": 160.0
      },
      "_links": {
        "self": {
          "href": "https://api.edamam.com/api/recipes/v2/76dfcd3135fffb007c22ffd0b2e18be0?type=public&app_id=5c0fb7a3&app_key=ed3ef53124d5aeca35f2143b29cb363d",
          "title": "Self"
        }
      }
    },
    {
      "recipe": {
        "uri": "http://www.edamam.com/ontologies/edamam.owl#recipe_0948714be1219cc4d2110d8b7898a78e",
        "label": "Margarita Pizza",
        "image": "https://www.edamam.com/web-img/ecb/ecb5e0fb536d0c33bebebc488b6d4373.jpg",
        "url": "http://www.epicurious.com/recipes/food/views/Margarita-Pizza-51112270",
        "totalTime": 213.0
      },
      "_links": {
        "self": {
          "href": "https://api.edamam.com/api/recipes/v2/0948714be1219cc4d2110d8b7898a78e?type=public&app_id=5c0fb7a3&app_key=ed3ef53124d5aeca35f2143b29cb363d",
          "title": "Self"
        }
      }
    },
    {
      "recipe": {
        "uri": "http://www.edamam.com/ontologies/edamam.owl#recipe_1b594b0ed0b93a364675ad1f77d467a2",
        "label": "Fresh Homemade Pizza",
        "image": "https://www.edamam.com/web-img/45b/45b6d85ac1b867219a41efe2a29d7a9a.jpg",
        "url": "http://honestcooking.com/fresh-homemade-pizza-recipe/",
        "totalTime": 35.0
      },
      "_links": {
        "self": {
          "href": "https://api.edamam.com/api/recipes/v2/1b594b0ed0b93a364675ad1f77d467a2?type=public&app_id=5c0fb7a3&app_key=ed3ef53124d5aeca35f2143b29cb363d",
          "title": "Self"
        }
      }
    },
    {
      "recipe": {
        "uri": "http://www.edamam.com/ontologies/edamam.owl#recipe_edb49b318c7f9871e5d929330289b006",
        "label": "Pizza Margherita recipes",
        "image": "https://www.edamam.com/web-img/65d/65deab20fd757a5065656a609781ae11",
        "url": "http://www.myrecipes.com/recipe/pizza-margherita",
        "totalTime": 25.0
      },
      "_links": {
        "self": {
          "href": "https://api.edamam.com/api/recipes/v2/edb49b318c7f9871e5d929330289b006?type=public&app_id=5c0fb7a3&app_key=ed3ef53124d5aeca35f2143b29cb363d",
          "title": "Self"
        }
      }
    },
    {
      "recipe": {
        "uri": "http://www.edamam.com/ontologies/edamam.owl#recipe_5f20483d09aa4ba2b6b04219b1b51f0e",
        "label": "Basic Pizza",
        "image": "https://www.edamam.com/web-img/19e/19e04f7ce4284b8cb948c0b4509507ae.jpg",
        "url": "https://www.realsimple.com/food-recipes/browse-all-recipes/basic-pizza",
        "totalTime": 40.0
      },
      "_links": {
        "self": {
          "href": "https://api.edamam.com/api/recipes/v2/5f20483d09aa4ba2b6b04219b1b51f0e?type=public&app_id=5c0fb7a3&app_key=ed3ef53124d5aeca35f2143b29cb363d",
          "title": "Self"
        }
      }
    },
    {
      "recipe": {
        "uri": "http://www.edamam.com/ontologies/edamam.owl#recipe_9153a454fcb45f0695a011dbf326fa65",
        "label": "Ground Chicken Pizza",
        "image": "https://www.edamam.com/web-img/705/7055effa4bd63c8a4fcbe2881ab85326.jpg",
        "url": "http://www.cookstr.com/recipes/ground-chicken-pizza",
        "totalTime": 60.0
      },
      "_links": {
        "self": {
          "href": "https://api.edamam.com/api/recipes/v2/9153a454fcb45f0695a011dbf326fa65?type=public&app_id=5c0fb7a3&app_key=ed3ef53124d5aeca35f2143b29cb363d",
          "title": "Self"
        }
      }
    },
    {
      "recipe": {
        "uri": "http://www.edamam.com/ontologies/edamam.owl#recipe_e38aa9288f05bf713bf99b033ad51831",
        "label": "Rainbow Veggie Pizza",
        "image": "https://www.edamam.com/web-img/1aa/1aa45736abb04ebd2f92ed5eba261137",
        "url": "http://www.eatingwell.com/recipe/281011/rainbow-veggie-pizza/",
        "totalTime": 55.0
      },
      "_links": {
        "self": {
          "href": "https://api.edamam.com/api/recipes/v2/e38aa9288f05bf713bf99b033ad51831?type=public&app_id=5c0fb7a3&app_key=ed3ef53124d5aeca35f2143b29cb363d",
          "title": "Self"
        }
      }
    },
    {
      "recipe": {
        "uri": "http://www.edamam.com/ontologies/edamam.owl#recipe_a27870ac7fa17c9ce3369b66dbf6bba4",
        "label": "Pizza Rolls",
        "image": "https://www.edamam.com/web-img/c46/c467b80ff0c33bb99a13f371d4f88673.jpg",
        "url": "https://www.delish.com/cooking/recipe-ideas/recipes/a50476/pizza-rolls-recipe/",
        "totalTime": 25.0
      },
      "_links": {
        "self": {
          "href": "https://api.edamam.com/api/recipes/v2/a27870ac7fa17c9ce3369b66dbf6bba4?type=public&app_id=5c0fb7a3&app_key=ed3ef53124d5aeca35f2143b29cb363d",
          "title": "Self"
        }
      }
    },
    {
      "recipe": {
        "uri": "http://www.edamam.com/ontologies/edamam.owl#recipe_8fac2cd0d8c8ae8702a569345b18bb30",
        "label": "Roast cauliflower cheese pizza",
        "image": "https://www.edamam.com/web-img/407/40789d12460df73a150a1d89958dc792.jpg",
        "url": "https://www.bbcgoodfood.com/recipes/roast-cauliflower-cheese-pizza",
        "totalTime": 75.0
      },
      "_links": {
        "self": {
          "href": "https://api.edamam.com/api/recipes/v2/8fac2cd0d8c8ae8702a569345b18bb30?type=public&app_id=5c0fb7a3&app_key=ed3ef53124d5aeca35f2143b29cb363d",
          "title": "Self"
        }
      }
    },
    {
      "recipe": {
        "uri": "http://www.edamam.com/ontologies/edamam.owl#recipe_45cda77c5d4d34861bf4a8971651263f",
        "label": "BLT Pizza",
        "image": "https://www.edamam.com/web-img/ca9/ca9e7db6b3492f5ab513edfc2931c4d8.jpg",
        "url": "http://www.goodhousekeeping.com/food-recipes/a11367/blt-pizza-recipe-121492/",
        "totalTime": 20.0
      },
      "_links": {
        "self": {
          "href": "https://api.edamam.com/api/recipes/v2/45cda77c5d4d34861bf4a8971651263f?type=public&app_id=5c0fb7a3&app_key=ed3ef53124d5aeca35f2143b29cb363d",
          "title": "Self"
        }
      }
    },
    {
      "recipe": {
        "uri": "http://www.edamam.com/ontologies/edamam.owl#recipe_3ba10cc34409cb537012eacbab76a1a5",
        "label": "Neapolitan style vegetarian pizza",
        "image": "https://www.edamam.com/web-img/e99/e998843408f2f325e7368218bdd81263.jpg",
        "url": "https://food52.com/recipes/82701-neapolitan-style-vegetarian-pizza",
        "totalTime": 60.0
      },
      "_links": {
        "self": {
          "href": "https://api.edamam.com/api/recipes/v2/3ba10cc34409cb537012eacbab76a1a5?type=public&app_id=5c0fb7a3&app_key=ed3ef53124d5aeca35f2143b29cb363d",
          "title": "Self"
        }
      }
    },
    {
      "recipe": {
        "uri": "http://www.edamam.com/ontologies/edamam.owl#recipe_e1af31f90f7a2345f4ee5ba3e655ed00",
        "label": "Buffalo Chicken Pizza",
        "image": "https://www.edamam.com/web-img/6b8/6b86637b08c91a74141ff00914629a4f.jpeg",
        "url": "https://www.foodnetwork.com/recipes/food-network-kitchen/buffalo-chicken-pizza-3363306",
        "totalTime": 30.0
      },
      "_links": {
        "self": {
          "href": "https://api.edamam.com/api/recipes/v2/e1af31f90f7a2345f4ee5ba3e655ed00?type=public&app_id=5c0fb7a3&app_key=ed3ef53124d5aeca35f2143b29cb363d",
          "title": "Self"
        }
      }
    },
    {
      "recipe": {
        "uri": "http://www.edamam.com/ontologies/edamam.owl#recipe_f198f38f383db5921441c5f80afb752c",
        "label": "Pizza Margherita recipes",
        "image": "https://www.edamam.com/web-img/62e/62e3f26b63d6145ff50311a0b67222be",
        "url": "http://www.closetcooking.com/2011/01/pizza-margherita.html",
        "totalTime": 40.0
      },
      "_links": {
        "self": {
          "href": "https://api.edamam.com/api/recipes/v2/f198f38f383db5921441c5f80afb752c?type=public&app_id=5c0fb7a3&app_key=ed3ef53124d5aeca35f2143b29cb363d",
          "title": "Self"
        }
      }
    },
    {
      "recipe": {
        "uri": "http://www.edamam.com/ontologies/edamam.owl#recipe_8779ef8844a0b19fdcc1ea710589bc7e",
        "label": "Classic Margherita Pizza",
        "image": "https://www.edamam.com/web-img/f7e/f7eaa9fb5569cdc31444309854e775f1",
        "url": "https://www.marthastewart.com/1528964/classic-margherita-pizza",
        "totalTime": 20.0
      },
      "_links": {
        "self": {
          "href": "https://api.edamam.com/api/recipes/v2/8779ef8844a0b19fdcc1ea710589bc7e?type=public&app_id=5c0fb7a3&app_key=ed3ef53124d5aeca35f2143b29cb363d",
          "title": "Self"
        }
      }
    },
    {
      "recipe": {
        "uri": "http://www.edamam.com/ontologies/edamam.owl#recipe_702c1e669fbec0850149c2e596a1d882",
        "label": "Chicken Parmesan Pizza",
        "image": "https://www.edamam.com/web-img/4b1/4b1f90a5484e0bf6fed77535a88584b7.jpg",
        "url": "http://whatsgabycooking.com/chicken-parmesan-pizza/",
        "totalTime": 132.0
      },
      "_links": {
        "self": {
          "href": "https://api.edamam.com/api/recipes/v2/702c1e669fbec0850149c2e596a1d882?type=public&app_id=5c0fb7a3&app_key=ed3ef53124d5aeca35f2143b29cb363d",
          "title": "Self"
        }
      }
    }
  ]
}